D:\Projects\shopkart-bitbucket\shopkart\credit-payment-service\src\main\java\com\credit\payment\controller\PaymentController.java
D:\Projects\shopkart-bitbucket\shopkart\credit-payment-service\src\main\java\com\credit\payment\CreditPaymentApplication.java
D:\Projects\shopkart-bitbucket\shopkart\credit-payment-service\src\main\java\com\credit\payment\constants\CardTypes.java
D:\Projects\shopkart-bitbucket\shopkart\credit-payment-service\src\main\java\com\credit\payment\controller\CreditCardPaymentController.java
D:\Projects\shopkart-bitbucket\shopkart\credit-payment-service\src\main\java\com\credit\payment\service\CreditCardDiscountCalculationImpl.java
D:\Projects\shopkart-bitbucket\shopkart\credit-payment-service\src\main\java\com\credit\payment\model\CartSummary.java
D:\Projects\shopkart-bitbucket\shopkart\credit-payment-service\src\main\java\com\credit\payment\model\CartItems.java
D:\Projects\shopkart-bitbucket\shopkart\credit-payment-service\src\main\java\com\credit\payment\service\CreditCardPaymentService.java
D:\Projects\shopkart-bitbucket\shopkart\credit-payment-service\src\main\java\com\credit\payment\service\CreditCardDiscountCalculation.java
