com\shopkart\checkout\model\Cart.class
com\shopkart\checkout\error\ErrorCode.class
com\shopkart\checkout\repository\ProductRepository.class
com\shopkart\checkout\controller\ProductInformationController.class
com\shopkart\checkout\controller\CheckoutController.class
com\shopkart\checkout\service\ProductInformationService.class
com\shopkart\checkout\error\CartIsEmptyException.class
com\shopkart\checkout\service\CheckoutServiceImpl.class
com\shopkart\checkout\repository\CartRepository.class
com\shopkart\checkout\model\CartSummary.class
com\shopkart\checkout\model\Product.class
com\shopkart\checkout\error\CheckoutExceptionController.class
com\shopkart\checkout\error\ProductNotFoundException.class
com\shopkart\checkout\error\ErrorCodeTypes.class
com\shopkart\checkout\model\CardTypes.class
com\shopkart\checkout\controller\PaymentService.class
com\shopkart\checkout\ShopkartCheckoutApplication.class
